<svg xmlns="http://www.w3.org/2000/svg" width="526" height="80" viewBox="0 0 526 80">
  <g id="Group_207" data-name="Group 207" transform="translate(-468 -907)">
    <g id="logos-wrap-size" transform="translate(344 603)">
      <path id="Line_10" data-name="Line 10" d="M0,32V0" transform="translate(201.5 304.5)" fill="none" stroke="#00c081" stroke-width="1"/>
      <text id="_36px" data-name="36px" transform="translate(207 320)" fill="#141823" font-size="12" font-family="Lato-Regular, Lato"><tspan x="0" y="0">36px</tspan></text>
      <text id="_24px" data-name="24px" transform="translate(173 358)" fill="#141823" font-size="12" font-family="Lato-Regular, Lato"><tspan x="0" y="0">24px</tspan></text>
      <text id="_6px" data-name="6px" transform="translate(142 323)" fill="#141823" font-size="12" font-family="Lato-Regular, Lato"><tspan x="0" y="0">6px</tspan></text>
      <path id="Path_13" data-name="Path 13" d="M0,0H36V36H0Z" transform="translate(166 304)" fill="#141823"/>
      <path id="gitlab" d="M23.955,14.668,22.613,10.18,19.949,1.29a.445.445,0,0,0-.867,0l-2.664,8.887H7.582L4.919,1.29a.447.447,0,0,0-.869,0L1.386,10.18.044,14.668a1.053,1.053,0,0,0,.331,1.111L12,24.945,23.625,15.78a1.048,1.048,0,0,0,.33-1.112" transform="translate(172 309.055)" fill="#fff"/>
      <path id="Line_11" data-name="Line 11" d="M24,0H0" transform="translate(172 337)" fill="none" stroke="#00c081" stroke-width="1"/>
      <path id="Line_12" data-name="Line 12" d="M4,0H0" transform="translate(167 322)" fill="none" stroke="#00c081" stroke-width="1"/>
      <text id="wrapper" transform="translate(208 330)" fill="#141823" font-size="12" font-family="Lato-Regular, Lato"><tspan x="0" y="0">wrapper</tspan></text>
      <text id="logo" transform="translate(174 368)" fill="#141823" font-size="12" font-family="Lato-Regular, Lato"><tspan x="0" y="0">logo</tspan></text>
      <text id="margin" transform="translate(124 334)" fill="#141823" font-size="12" font-family="Lato-Regular, Lato"><tspan x="0" y="0">margin</tspan></text>
    </g>
    <g id="Group_180" data-name="Group 180" transform="translate(146 -32)">
      <g id="Group_59" data-name="Group 59" transform="translate(276.591 252.591)">
        <rect id="Rectangle_279" data-name="Rectangle 279" width="36" height="36" transform="translate(316.409 686.409)" fill="#141823"/>
        <path id="iconfinder_06-facebook_104498" d="M29.134,13.867h-3.8V11.376a1.014,1.014,0,0,1,1.057-1.154h2.68V6.11L25.382,6.1c-4.1,0-5.03,3.067-5.03,5.03v2.741h-2.37V18.1h2.37V30.1h4.984V18.1H28.7Z" transform="translate(310.827 686.313)" fill="#fff"/>
        <path id="Line_11-2" data-name="Line 11" d="M24,0H0" transform="translate(324.409 693.409) rotate(90)" fill="none" stroke="#00c081" stroke-width="1"/>
      </g>
      <text id="_24px-2" data-name="24px" transform="translate(561 951)" fill="#141823" font-size="12" font-family="Lato-Regular, Lato"><tspan x="0" y="0">24px</tspan></text>
      <text id="logo-2" data-name="logo" transform="translate(564 961)" fill="#141823" font-size="12" font-family="Lato-Regular, Lato"><tspan x="0" y="0">logo</tspan></text>
      <text id="logo-3" data-name="logo" transform="translate(554 973)" fill="#141823" font-size="12" font-family="Lato-Regular, Lato"><tspan x="0" y="0">height</tspan></text>
      <line id="Line_161" data-name="Line 161" y2="4" transform="translate(610.5 970.5)" fill="none" stroke="#00c88c" stroke-width="1"/>
      <text id="_6px-2" data-name="6px" transform="translate(593 993)" fill="#141823" font-size="12" font-family="Lato-Regular, Lato"><tspan x="0" y="0">6px</tspan></text>
      <text id="_6px-3" data-name="6px" transform="translate(593 1016)" fill="#141823" font-size="12" font-family="Lato-Regular, Lato"><tspan x="0" y="0">top/bottom</tspan></text>
      <text id="margin-2" data-name="margin" transform="translate(593 1004)" fill="#141823" font-size="12" font-family="Lato-Regular, Lato"><tspan x="0" y="0">margin</tspan></text>
      <line id="Line_163" data-name="Line 163" x2="6.003" transform="translate(620.902 948.001) rotate(-30)" fill="none" stroke="#566b79" stroke-width="1"/>
      <g id="Group_181" data-name="Group 181">
        <line id="Line_162" data-name="Line 162" x2="6.003" transform="translate(620.902 945.001) rotate(-30)" fill="none" stroke="#dc3545" stroke-width="1"/>
        <line id="Line_164" data-name="Line 164" x2="6.003" transform="translate(620.902 948.001) rotate(-30)" fill="none" stroke="#dc3545" stroke-width="1"/>
        <line id="Line_165" data-name="Line 165" x2="6.003" transform="translate(620.902 951.001) rotate(-30)" fill="none" stroke="#dc3545" stroke-width="1"/>
        <line id="Line_166" data-name="Line 166" x2="6.003" transform="translate(620.902 954.001) rotate(-30)" fill="none" stroke="#dc3545" stroke-width="1"/>
        <line id="Line_167" data-name="Line 167" x2="6.003" transform="translate(620.902 957.001) rotate(-30)" fill="none" stroke="#dc3545" stroke-width="1"/>
        <line id="Line_168" data-name="Line 168" x2="6.003" transform="translate(620.902 960.001) rotate(-30)" fill="none" stroke="#dc3545" stroke-width="1"/>
        <line id="Line_169" data-name="Line 169" x2="6.003" transform="translate(620.902 963.001) rotate(-30)" fill="none" stroke="#dc3545" stroke-width="1"/>
        <line id="Line_170" data-name="Line 170" x2="6.003" transform="translate(620.902 966.001) rotate(-30)" fill="none" stroke="#dc3545" stroke-width="1"/>
        <line id="Line_171" data-name="Line 171" x2="6.003" transform="translate(620.902 969.001) rotate(-30)" fill="none" stroke="#dc3545" stroke-width="1"/>
        <line id="Line_172" data-name="Line 172" x2="6.003" transform="translate(620.902 972.001) rotate(-30)" fill="none" stroke="#dc3545" stroke-width="1"/>
      </g>
    </g>
    <g id="Group_63" data-name="Group 63" transform="translate(904 907)">
      <path id="Path_146" data-name="Path 146" d="M0,0H36V36H0Z" fill="#141823"/>
      <g id="iconfinder_201-LinkedIn_192159" transform="translate(6 6.7)">
        <path id="Path_19" data-name="Path 19" d="M18.312,53.735V44.648a2.693,2.693,0,0,0-2.621-2.431,2.856,2.856,0,0,0-2.78,2.311v9.207H8.066l.079-15.011h4.686l-.038,1.887s.977-2.466,4.658-2.466,5.347,2.115,5.657,6.07v9.52ZM2.125,36.592A2.856,2.856,0,0,1-.891,33.93a2.858,2.858,0,0,1,3.016-2.665A2.858,2.858,0,0,1,5.141,33.93,2.856,2.856,0,0,1,2.125,36.592Zm2.99,17.161H-.841V38.762l5.956-.038Z" transform="translate(0.891 -31.265)" fill="#fff"/>
      </g>
      <path id="Line_11-3" data-name="Line 11" d="M24,0H0" transform="translate(6 33)" fill="none" stroke="#00c081" stroke-width="1"/>
      <text id="_24px-3" data-name="24px" transform="translate(0 54)" fill="#141823" font-size="12" font-family="Lato-Regular, Lato"><tspan x="0" y="0">24px</tspan></text>
      <text id="logo-4" data-name="logo" transform="translate(0 65)" fill="#141823" font-size="12" font-family="Lato-Regular, Lato"><tspan x="0" y="0">logo</tspan></text>
      <text id="logo-5" data-name="logo" transform="translate(0 77)" fill="#141823" font-size="12" font-family="Lato-Regular, Lato"><tspan x="0" y="0">width</tspan></text>
      <path id="Line_12-2" data-name="Line 12" d="M4,0H0" transform="translate(31 22)" fill="none" stroke="#00c081" stroke-width="1"/>
      <text id="_36px-2" data-name="36px" transform="translate(42 12)" fill="#141823" font-size="12" font-family="Lato-Regular, Lato"><tspan x="0" y="0">6px</tspan></text>
      <text id="wrapper-2" data-name="wrapper" transform="translate(43 22)" fill="#141823" font-size="12" font-family="Lato-Regular, Lato"><tspan x="0" y="0">margin</tspan></text>
      <text id="wrapper-3" data-name="wrapper" transform="translate(43 33)" fill="#141823" font-size="12" font-family="Lato-Regular, Lato"><tspan x="0" y="0">left/right</tspan></text>
      <g id="Group_182" data-name="Group 182" transform="translate(3 5.511) rotate(-90)">
        <line id="Line_162-2" data-name="Line 162" x2="5.06" y2="0.544" transform="translate(0 27) rotate(30)" fill="none" stroke="#dc3545" stroke-width="1"/>
        <line id="Line_164-2" data-name="Line 164" x2="5.06" y2="0.544" transform="translate(0 24) rotate(30)" fill="none" stroke="#dc3545" stroke-width="1"/>
        <line id="Line_165-2" data-name="Line 165" x2="5.06" y2="0.544" transform="translate(0 21) rotate(30)" fill="none" stroke="#dc3545" stroke-width="1"/>
        <line id="Line_166-2" data-name="Line 166" x2="5.06" y2="0.544" transform="translate(0 18) rotate(30)" fill="none" stroke="#dc3545" stroke-width="1"/>
        <line id="Line_167-2" data-name="Line 167" x2="5.06" y2="0.544" transform="translate(0 15) rotate(30)" fill="none" stroke="#dc3545" stroke-width="1"/>
        <line id="Line_168-2" data-name="Line 168" x2="5.06" y2="0.544" transform="translate(0 12) rotate(30)" fill="none" stroke="#dc3545" stroke-width="1"/>
        <line id="Line_169-2" data-name="Line 169" x2="5.06" y2="0.544" transform="translate(0 9) rotate(30)" fill="none" stroke="#dc3545" stroke-width="1"/>
        <line id="Line_170-2" data-name="Line 170" x2="5.06" y2="0.544" transform="translate(0 6) rotate(30)" fill="none" stroke="#dc3545" stroke-width="1"/>
        <line id="Line_171-2" data-name="Line 171" x2="5.06" y2="0.544" transform="translate(0 3) rotate(30)" fill="none" stroke="#dc3545" stroke-width="1"/>
        <line id="Line_172-2" data-name="Line 172" x2="5.06" y2="0.544" transform="translate(0 0) rotate(30)" fill="none" stroke="#dc3545" stroke-width="1"/>
      </g>
    </g>
  </g>
</svg>
